submissions/task-4.1/local_samples/20260406_170400_post_hardening_v2/bastion_gpio/run.log
/home/abdulbasit/electrical-and-electronics-engineering/VLSI/isqed-2026-dv-challenge/duts/bastion_gpio/bastion_gpio.sv:119: sorry: constant selects in always_* processes are not currently supported (all bits will be included).
/home/abdulbasit/electrical-and-electronics-engineering/VLSI/isqed-2026-dv-challenge/duts/bastion_gpio/bastion_gpio.sv:132: sorry: constant selects in always_* processes are not currently supported (all bits will be included).
/home/abdulbasit/electrical-and-electronics-engineering/VLSI/isqed-2026-dv-challenge/duts/bastion_gpio/bastion_gpio.sv:132: sorry: constant selects in always_* processes are not currently supported (all bits will be included).
     -.--ns INFO     gpi                                ..mbed/gpi_embed.cpp:93   in _embed_init_python              Using Python 3.12.4 interpreter at /home/abdulbasit/electrical-and-electronics-engineering/VLSI/isqed-2026-dv-challenge/.venv/bin/python
     -.--ns INFO     gpi                                ../gpi/GpiCommon.cpp:79   in gpi_print_registered_impl       VPI registered
     0.00ns INFO     cocotb                             Running on Icarus Verilog version 12.0 (stable)
     0.00ns INFO     cocotb                             Seeding Python random module with 1775491580
     0.00ns INFO     cocotb                             Initialized cocotb v2.0.1 from /home/abdulbasit/electrical-and-electronics-engineering/VLSI/isqed-2026-dv-challenge/.venv/lib/python3.12/site-packages/cocotb
     0.00ns INFO     cocotb                             Running tests
     0.00ns INFO     cocotb.regression                  running test_directed_smoke.test_directed_csr_smoke (1/2)
                                                            Directed smoke test: reset, deterministic writes, deterministic reads.
82000000000.00ns INFO     cocotb.regression                  test_directed_smoke.test_directed_csr_smoke passed
82000000000.00ns INFO     cocotb.regression                  running test_directed_smoke.test_directed_error_probe (2/2)
                                                                 Directed boundary/error probe on out-of-range-like addresses.
111000000000.00ns INFO     cocotb.regression                  test_directed_smoke.test_directed_error_probe passed
111000000000.00ns INFO     cocotb.regression                  *******************************************************************************************************
                                                              ** TEST                                           STATUS  SIM TIME (ns)  REAL TIME (s)  RATIO (ns/s) **
                                                              *******************************************************************************************************
                                                              ** test_directed_smoke.test_directed_csr_smoke     PASS   82000000000.00           0.01   8402133385449.75  **
                                                              ** test_directed_smoke.test_directed_error_probe   PASS   28000000000.00           0.00   8427736777897.38  **
                                                              *******************************************************************************************************
                                                              ** TESTS=2 PASS=2 FAIL=0 SKIP=0                           111000000000.00           0.02   7209051330886.79  **
                                                              *******************************************************************************************************
     -.--ns INFO     gpi                                ..mbed/gpi_embed.cpp:93   in _embed_init_python              Using Python 3.12.4 interpreter at /home/abdulbasit/electrical-and-electronics-engineering/VLSI/isqed-2026-dv-challenge/.venv/bin/python
     -.--ns INFO     gpi                                ../gpi/GpiCommon.cpp:79   in gpi_print_registered_impl       VPI registered
     0.00ns INFO     cocotb                             Running on Icarus Verilog version 12.0 (stable)
     0.00ns INFO     cocotb                             Seeding Python random module with 1775491581
     0.00ns INFO     cocotb                             Initialized cocotb v2.0.1 from /home/abdulbasit/electrical-and-electronics-engineering/VLSI/isqed-2026-dv-challenge/.venv/lib/python3.12/site-packages/cocotb
     0.00ns INFO     cocotb                             Running tests
     0.00ns INFO     cocotb.regression                  running test_random_csr.test_randomized_csr_traffic (1/1)
                                                            Constrained-random TL-UL CSR traffic with reproducible seed.
110000000000.00ns INFO     cocotb.regression                  test_random_csr.test_randomized_csr_traffic passed
110000000000.00ns INFO     cocotb.regression                  *****************************************************************************************************
                                                              ** TEST                                         STATUS  SIM TIME (ns)  REAL TIME (s)  RATIO (ns/s) **
                                                              *****************************************************************************************************
                                                              ** test_random_csr.test_randomized_csr_traffic   PASS   110000000000.00           0.01   7588628573308.33  **
                                                              *****************************************************************************************************
                                                              ** TESTS=1 PASS=1 FAIL=0 SKIP=0                         110000000000.00           0.02   6859347625702.48  **
                                                              *****************************************************************************************************
- V e r i l a t i o n   R e p o r t: Verilator 5.045 devel rev v5.044-259-g6a5d3b0b7
- Verilator: Built from 0.056 MB sources in 3 modules, into 0.204 MB in 8 C++ files needing 0.000 MB
- Verilator: Walltime 0.029 s (elab=0.001, cvt=0.017, bld=0.000); cpu 0.027 s on 1 threads; allocated 31.449 MB
make: Entering directory '/home/abdulbasit/electrical-and-electronics-engineering/VLSI/isqed-2026-dv-challenge/submissions/task-4.1/submission-4.1/output_bastion_gpio/sim_build/verilator'
ccache g++  -I.  -MMD -I/home/abdulbasit/open-source/verilator/include -I/home/abdulbasit/open-source/verilator/include/vltstd -DVERILATOR=1 -DVM_COVERAGE=1 -DVM_SC=0 -DVM_TIMING=0 -DVM_TRACE=0 -DVM_TRACE_FST=0 -DVM_TRACE_VCD=0 -DVM_TRACE_SAIF=0 -faligned-new -fcf-protection=none -Wno-bool-operation -Wno-int-in-bool-context -Wno-shadow -Wno-sign-compare -Wno-subobject-linkage -Wno-tautological-compare -Wno-uninitialized -Wno-unused-but-set-parameter -Wno-unused-but-set-variable -Wno-unused-parameter -Wno-unused-variable      -Os  -c -o verilator.o /home/abdulbasit/electrical-and-electronics-engineering/VLSI/isqed-2026-dv-challenge/.venv/lib/python3.12/site-packages/cocotb/share/lib/verilator/verilator.cpp
ccache g++ -Os  -I.  -MMD -I/home/abdulbasit/open-source/verilator/include -I/home/abdulbasit/open-source/verilator/include/vltstd -DVERILATOR=1 -DVM_COVERAGE=1 -DVM_SC=0 -DVM_TIMING=0 -DVM_TRACE=0 -DVM_TRACE_FST=0 -DVM_TRACE_VCD=0 -DVM_TRACE_SAIF=0 -faligned-new -fcf-protection=none -Wno-bool-operation -Wno-int-in-bool-context -Wno-shadow -Wno-sign-compare -Wno-subobject-linkage -Wno-tautological-compare -Wno-uninitialized -Wno-unused-but-set-parameter -Wno-unused-but-set-variable -Wno-unused-parameter -Wno-unused-variable      -c -o verilated.o /home/abdulbasit/open-source/verilator/include/verilated.cpp
ccache g++ -Os  -I.  -MMD -I/home/abdulbasit/open-source/verilator/include -I/home/abdulbasit/open-source/verilator/include/vltstd -DVERILATOR=1 -DVM_COVERAGE=1 -DVM_SC=0 -DVM_TIMING=0 -DVM_TRACE=0 -DVM_TRACE_FST=0 -DVM_TRACE_VCD=0 -DVM_TRACE_SAIF=0 -faligned-new -fcf-protection=none -Wno-bool-operation -Wno-int-in-bool-context -Wno-shadow -Wno-sign-compare -Wno-subobject-linkage -Wno-tautological-compare -Wno-uninitialized -Wno-unused-but-set-parameter -Wno-unused-but-set-variable -Wno-unused-parameter -Wno-unused-variable      -c -o verilated_dpi.o /home/abdulbasit/open-source/verilator/include/verilated_dpi.cpp
ccache g++ -Os  -I.  -MMD -I/home/abdulbasit/open-source/verilator/include -I/home/abdulbasit/open-source/verilator/include/vltstd -DVERILATOR=1 -DVM_COVERAGE=1 -DVM_SC=0 -DVM_TIMING=0 -DVM_TRACE=0 -DVM_TRACE_FST=0 -DVM_TRACE_VCD=0 -DVM_TRACE_SAIF=0 -faligned-new -fcf-protection=none -Wno-bool-operation -Wno-int-in-bool-context -Wno-shadow -Wno-sign-compare -Wno-subobject-linkage -Wno-tautological-compare -Wno-uninitialized -Wno-unused-but-set-parameter -Wno-unused-but-set-variable -Wno-unused-parameter -Wno-unused-variable      -c -o verilated_vpi.o /home/abdulbasit/open-source/verilator/include/verilated_vpi.cpp
ccache g++ -Os  -I.  -MMD -I/home/abdulbasit/open-source/verilator/include -I/home/abdulbasit/open-source/verilator/include/vltstd -DVERILATOR=1 -DVM_COVERAGE=1 -DVM_SC=0 -DVM_TIMING=0 -DVM_TRACE=0 -DVM_TRACE_FST=0 -DVM_TRACE_VCD=0 -DVM_TRACE_SAIF=0 -faligned-new -fcf-protection=none -Wno-bool-operation -Wno-int-in-bool-context -Wno-shadow -Wno-sign-compare -Wno-subobject-linkage -Wno-tautological-compare -Wno-uninitialized -Wno-unused-but-set-parameter -Wno-unused-but-set-variable -Wno-unused-parameter -Wno-unused-variable      -c -o verilated_cov.o /home/abdulbasit/open-source/verilator/include/verilated_cov.cpp
ccache g++ -Os  -I.  -MMD -I/home/abdulbasit/open-source/verilator/include -I/home/abdulbasit/open-source/verilator/include/vltstd -DVERILATOR=1 -DVM_COVERAGE=1 -DVM_SC=0 -DVM_TIMING=0 -DVM_TRACE=0 -DVM_TRACE_FST=0 -DVM_TRACE_VCD=0 -DVM_TRACE_SAIF=0 -faligned-new -fcf-protection=none -Wno-bool-operation -Wno-int-in-bool-context -Wno-shadow -Wno-sign-compare -Wno-subobject-linkage -Wno-tautological-compare -Wno-uninitialized -Wno-unused-but-set-parameter -Wno-unused-but-set-variable -Wno-unused-parameter -Wno-unused-variable      -c -o verilated_threads.o /home/abdulbasit/open-source/verilator/include/verilated_threads.cpp
python3 /home/abdulbasit/open-source/verilator/bin/verilator_includer -DVL_INCLUDE_OPT=include Vtop.cpp Vtop___024root__0.cpp Vtop__Dpi.cpp Vtop___024root__Slow.cpp Vtop___024root__0__Slow.cpp Vtop_dv_common_pkg__Slow.cpp Vtop_dv_common_pkg__0__Slow.cpp Vtop__Syms__Slow.cpp > Vtop__ALL.cpp
ccache g++ -Os  -I.  -MMD -I/home/abdulbasit/open-source/verilator/include -I/home/abdulbasit/open-source/verilator/include/vltstd -DVERILATOR=1 -DVM_COVERAGE=1 -DVM_SC=0 -DVM_TIMING=0 -DVM_TRACE=0 -DVM_TRACE_FST=0 -DVM_TRACE_VCD=0 -DVM_TRACE_SAIF=0 -faligned-new -fcf-protection=none -Wno-bool-operation -Wno-int-in-bool-context -Wno-shadow -Wno-sign-compare -Wno-subobject-linkage -Wno-tautological-compare -Wno-uninitialized -Wno-unused-but-set-parameter -Wno-unused-but-set-variable -Wno-unused-parameter -Wno-unused-variable      -c -o Vtop__ALL.o Vtop__ALL.cpp
g++    verilator.o verilated.o verilated_dpi.o verilated_vpi.o verilated_cov.o verilated_threads.o Vtop__ALL.a   -Wl,-rpath,/home/abdulbasit/electrical-and-electronics-engineering/VLSI/isqed-2026-dv-challenge/.venv/lib/python3.12/site-packages/cocotb/libs -L/home/abdulbasit/electrical-and-electronics-engineering/VLSI/isqed-2026-dv-challenge/.venv/lib/python3.12/site-packages/cocotb/libs -lcocotbvpi_verilator  -pthread -lpthread -latomic   -o bastion_gpio
rm Vtop__ALL.verilator_deplist.tmp
make: Leaving directory '/home/abdulbasit/electrical-and-electronics-engineering/VLSI/isqed-2026-dv-challenge/submissions/task-4.1/submission-4.1/output_bastion_gpio/sim_build/verilator'
     -.--ns INFO     gpi                                ..mbed/gpi_embed.cpp:93   in _embed_init_python              Using Python 3.12.4 interpreter at /home/abdulbasit/electrical-and-electronics-engineering/VLSI/isqed-2026-dv-challenge/.venv/bin/python
     -.--ns INFO     gpi                                ../gpi/GpiCommon.cpp:79   in gpi_print_registered_impl       VPI registered
     0.00ns INFO     cocotb                             Running on Verilator version 5.045 devel
     0.00ns INFO     cocotb                             Seeding Python random module with 1775491582
     0.00ns INFO     cocotb                             Initialized cocotb v2.0.1 from /home/abdulbasit/electrical-and-electronics-engineering/VLSI/isqed-2026-dv-challenge/.venv/lib/python3.12/site-packages/cocotb
     0.00ns INFO     cocotb                             Running tests
     0.00ns INFO     cocotb.regression                  running test_directed_smoke.test_directed_csr_smoke (1/2)
                                                            Directed smoke test: reset, deterministic writes, deterministic reads.
     0.08ns INFO     cocotb.regression                  test_directed_smoke.test_directed_csr_smoke passed
     0.08ns INFO     cocotb.regression                  running test_directed_smoke.test_directed_error_probe (2/2)
                                                            Directed boundary/error probe on out-of-range-like addresses.
     0.11ns INFO     cocotb.regression                  test_directed_smoke.test_directed_error_probe passed
     0.11ns INFO     cocotb.regression                  *******************************************************************************************************
                                                        ** TEST                                           STATUS  SIM TIME (ns)  REAL TIME (s)  RATIO (ns/s) **
                                                        *******************************************************************************************************
                                                        ** test_directed_smoke.test_directed_csr_smoke     PASS           0.08           0.00         17.48  **
                                                        ** test_directed_smoke.test_directed_error_probe   PASS           0.03           0.00         15.37  **
                                                        *******************************************************************************************************
                                                        ** TESTS=2 PASS=2 FAIL=0 SKIP=0                                   0.11           0.01         12.12  **
                                                        *******************************************************************************************************
- :0: Verilog $finish
     -.--ns INFO     gpi                                ..mbed/gpi_embed.cpp:93   in _embed_init_python              Using Python 3.12.4 interpreter at /home/abdulbasit/electrical-and-electronics-engineering/VLSI/isqed-2026-dv-challenge/.venv/bin/python
     -.--ns INFO     gpi                                ../gpi/GpiCommon.cpp:79   in gpi_print_registered_impl       VPI registered
     0.00ns INFO     cocotb                             Running on Verilator version 5.045 devel
     0.00ns INFO     cocotb                             Seeding Python random module with 1775491583
     0.00ns INFO     cocotb                             Initialized cocotb v2.0.1 from /home/abdulbasit/electrical-and-electronics-engineering/VLSI/isqed-2026-dv-challenge/.venv/lib/python3.12/site-packages/cocotb
     0.00ns INFO     cocotb                             Running tests
     0.00ns INFO     cocotb.regression                  running test_random_csr.test_randomized_csr_traffic (1/1)
                                                            Constrained-random TL-UL CSR traffic with reproducible seed.
     0.11ns INFO     cocotb.regression                  test_random_csr.test_randomized_csr_traffic passed
     0.11ns INFO     cocotb.regression                  *****************************************************************************************************
                                                        ** TEST                                         STATUS  SIM TIME (ns)  REAL TIME (s)  RATIO (ns/s) **
                                                        *****************************************************************************************************
                                                        ** test_random_csr.test_randomized_csr_traffic   PASS           0.11           0.01         16.68  **
                                                        *****************************************************************************************************
                                                        ** TESTS=1 PASS=1 FAIL=0 SKIP=0                                 0.11           0.01         13.34  **
                                                        *****************************************************************************************************
- :0: Verilog $finish
/home/abdulbasit/electrical-and-electronics-engineering/VLSI/isqed-2026-dv-challenge/duts/bastion_gpio/bastion_gpio.sv:119: sorry: constant selects in always_* processes are not currently supported (all bits will be included).
/home/abdulbasit/electrical-and-electronics-engineering/VLSI/isqed-2026-dv-challenge/duts/bastion_gpio/bastion_gpio.sv:132: sorry: constant selects in always_* processes are not currently supported (all bits will be included).
/home/abdulbasit/electrical-and-electronics-engineering/VLSI/isqed-2026-dv-challenge/duts/bastion_gpio/bastion_gpio.sv:132: sorry: constant selects in always_* processes are not currently supported (all bits will be included).
     -.--ns INFO     gpi                                ..mbed/gpi_embed.cpp:93   in _embed_init_python              Using Python 3.12.4 interpreter at /home/abdulbasit/electrical-and-electronics-engineering/VLSI/isqed-2026-dv-challenge/.venv/bin/python
     -.--ns INFO     gpi                                ../gpi/GpiCommon.cpp:79   in gpi_print_registered_impl       VPI registered
     0.00ns INFO     cocotb                             Running on Icarus Verilog version 12.0 (stable)
     0.00ns INFO     cocotb                             Seeding Python random module with 1775491586
     0.00ns INFO     cocotb                             Initialized cocotb v2.0.1 from /home/abdulbasit/electrical-and-electronics-engineering/VLSI/isqed-2026-dv-challenge/.venv/lib/python3.12/site-packages/cocotb
     0.00ns INFO     cocotb                             Running tests
     0.00ns INFO     cocotb.regression                  running test_directed_smoke.test_directed_csr_smoke (1/2)
                                                            Directed smoke test: reset, deterministic writes, deterministic reads.
82000000000.00ns INFO     cocotb.regression                  test_directed_smoke.test_directed_csr_smoke passed
82000000000.00ns INFO     cocotb.regression                  running test_directed_smoke.test_directed_error_probe (2/2)
                                                                 Directed boundary/error probe on out-of-range-like addresses.
111000000000.00ns INFO     cocotb.regression                  test_directed_smoke.test_directed_error_probe passed
111000000000.00ns INFO     cocotb.regression                  *******************************************************************************************************
                                                              ** TEST                                           STATUS  SIM TIME (ns)  REAL TIME (s)  RATIO (ns/s) **
                                                              *******************************************************************************************************
                                                              ** test_directed_smoke.test_directed_csr_smoke     PASS   82000000000.00           0.01   10323046132604.98  **
                                                              ** test_directed_smoke.test_directed_error_probe   PASS   28000000000.00           0.00   11625471391803.60  **
                                                              *******************************************************************************************************
                                                              ** TESTS=2 PASS=2 FAIL=0 SKIP=0                           111000000000.00           0.01   9075394619883.04  **
                                                              *******************************************************************************************************
     -.--ns INFO     gpi                                ..mbed/gpi_embed.cpp:93   in _embed_init_python              Using Python 3.12.4 interpreter at /home/abdulbasit/electrical-and-electronics-engineering/VLSI/isqed-2026-dv-challenge/.venv/bin/python
     -.--ns INFO     gpi                                ../gpi/GpiCommon.cpp:79   in gpi_print_registered_impl       VPI registered
     0.00ns INFO     cocotb                             Running on Icarus Verilog version 12.0 (stable)
     0.00ns INFO     cocotb                             Seeding Python random module with 1775491587
     0.00ns INFO     cocotb                             Initialized cocotb v2.0.1 from /home/abdulbasit/electrical-and-electronics-engineering/VLSI/isqed-2026-dv-challenge/.venv/lib/python3.12/site-packages/cocotb
     0.00ns INFO     cocotb                             Running tests
     0.00ns INFO     cocotb.regression                  running test_gap_iter_1.test_gap_iteration_1 (1/1)
                                                            Coverage-gap iteration test: sync_latency_observability_gap.
90000000000.00ns INFO     cocotb.regression                  test_gap_iter_1.test_gap_iteration_1 passed
90000000000.00ns INFO     cocotb.regression                  **********************************************************************************************
                                                             ** TEST                                  STATUS  SIM TIME (ns)  REAL TIME (s)  RATIO (ns/s) **
                                                             **********************************************************************************************
                                                             ** test_gap_iter_1.test_gap_iteration_1   PASS   90000000000.00           0.01   6340382619211.58  **
                                                             **********************************************************************************************
                                                             ** TESTS=1 PASS=1 FAIL=0 SKIP=0                  90000000000.00           0.02   5571111307889.84  **
                                                             **********************************************************************************************
     -.--ns INFO     gpi                                ..mbed/gpi_embed.cpp:93   in _embed_init_python              Using Python 3.12.4 interpreter at /home/abdulbasit/electrical-and-electronics-engineering/VLSI/isqed-2026-dv-challenge/.venv/bin/python
     -.--ns INFO     gpi                                ../gpi/GpiCommon.cpp:79   in gpi_print_registered_impl       VPI registered
     0.00ns INFO     cocotb                             Running on Icarus Verilog version 12.0 (stable)
     0.00ns INFO     cocotb                             Seeding Python random module with 1775491588
     0.00ns INFO     cocotb                             Initialized cocotb v2.0.1 from /home/abdulbasit/electrical-and-electronics-engineering/VLSI/isqed-2026-dv-challenge/.venv/lib/python3.12/site-packages/cocotb
     0.00ns INFO     cocotb                             Running tests
     0.00ns INFO     cocotb.regression                  running test_random_csr.test_randomized_csr_traffic (1/1)
                                                            Constrained-random TL-UL CSR traffic with reproducible seed.
110000000000.00ns INFO     cocotb.regression                  test_random_csr.test_randomized_csr_traffic passed
110000000000.00ns INFO     cocotb.regression                  *****************************************************************************************************
                                                              ** TEST                                         STATUS  SIM TIME (ns)  REAL TIME (s)  RATIO (ns/s) **
                                                              *****************************************************************************************************
                                                              ** test_random_csr.test_randomized_csr_traffic   PASS   110000000000.00           0.03   3537868568361.32  **
                                                              *****************************************************************************************************
                                                              ** TESTS=1 PASS=1 FAIL=0 SKIP=0                         110000000000.00           0.03   3277335360179.57  **
                                                              *****************************************************************************************************
- V e r i l a t i o n   R e p o r t: Verilator 5.045 devel rev v5.044-259-g6a5d3b0b7
- Verilator: Built from 0.056 MB sources in 3 modules, into 0.204 MB in 8 C++ files needing 0.000 MB
- Verilator: Walltime 0.040 s (elab=0.002, cvt=0.025, bld=0.000); cpu 0.037 s on 1 threads; allocated 31.453 MB
make: Entering directory '/home/abdulbasit/electrical-and-electronics-engineering/VLSI/isqed-2026-dv-challenge/submissions/task-4.1/submission-4.1/output_bastion_gpio/sim_build/verilator'
ccache g++  -I.  -MMD -I/home/abdulbasit/open-source/verilator/include -I/home/abdulbasit/open-source/verilator/include/vltstd -DVERILATOR=1 -DVM_COVERAGE=1 -DVM_SC=0 -DVM_TIMING=0 -DVM_TRACE=0 -DVM_TRACE_FST=0 -DVM_TRACE_VCD=0 -DVM_TRACE_SAIF=0 -faligned-new -fcf-protection=none -Wno-bool-operation -Wno-int-in-bool-context -Wno-shadow -Wno-sign-compare -Wno-subobject-linkage -Wno-tautological-compare -Wno-uninitialized -Wno-unused-but-set-parameter -Wno-unused-but-set-variable -Wno-unused-parameter -Wno-unused-variable      -Os  -c -o verilator.o /home/abdulbasit/electrical-and-electronics-engineering/VLSI/isqed-2026-dv-challenge/.venv/lib/python3.12/site-packages/cocotb/share/lib/verilator/verilator.cpp
ccache g++ -Os  -I.  -MMD -I/home/abdulbasit/open-source/verilator/include -I/home/abdulbasit/open-source/verilator/include/vltstd -DVERILATOR=1 -DVM_COVERAGE=1 -DVM_SC=0 -DVM_TIMING=0 -DVM_TRACE=0 -DVM_TRACE_FST=0 -DVM_TRACE_VCD=0 -DVM_TRACE_SAIF=0 -faligned-new -fcf-protection=none -Wno-bool-operation -Wno-int-in-bool-context -Wno-shadow -Wno-sign-compare -Wno-subobject-linkage -Wno-tautological-compare -Wno-uninitialized -Wno-unused-but-set-parameter -Wno-unused-but-set-variable -Wno-unused-parameter -Wno-unused-variable      -c -o verilated.o /home/abdulbasit/open-source/verilator/include/verilated.cpp
ccache g++ -Os  -I.  -MMD -I/home/abdulbasit/open-source/verilator/include -I/home/abdulbasit/open-source/verilator/include/vltstd -DVERILATOR=1 -DVM_COVERAGE=1 -DVM_SC=0 -DVM_TIMING=0 -DVM_TRACE=0 -DVM_TRACE_FST=0 -DVM_TRACE_VCD=0 -DVM_TRACE_SAIF=0 -faligned-new -fcf-protection=none -Wno-bool-operation -Wno-int-in-bool-context -Wno-shadow -Wno-sign-compare -Wno-subobject-linkage -Wno-tautological-compare -Wno-uninitialized -Wno-unused-but-set-parameter -Wno-unused-but-set-variable -Wno-unused-parameter -Wno-unused-variable      -c -o verilated_dpi.o /home/abdulbasit/open-source/verilator/include/verilated_dpi.cpp
ccache g++ -Os  -I.  -MMD -I/home/abdulbasit/open-source/verilator/include -I/home/abdulbasit/open-source/verilator/include/vltstd -DVERILATOR=1 -DVM_COVERAGE=1 -DVM_SC=0 -DVM_TIMING=0 -DVM_TRACE=0 -DVM_TRACE_FST=0 -DVM_TRACE_VCD=0 -DVM_TRACE_SAIF=0 -faligned-new -fcf-protection=none -Wno-bool-operation -Wno-int-in-bool-context -Wno-shadow -Wno-sign-compare -Wno-subobject-linkage -Wno-tautological-compare -Wno-uninitialized -Wno-unused-but-set-parameter -Wno-unused-but-set-variable -Wno-unused-parameter -Wno-unused-variable      -c -o verilated_vpi.o /home/abdulbasit/open-source/verilator/include/verilated_vpi.cpp
ccache g++ -Os  -I.  -MMD -I/home/abdulbasit/open-source/verilator/include -I/home/abdulbasit/open-source/verilator/include/vltstd -DVERILATOR=1 -DVM_COVERAGE=1 -DVM_SC=0 -DVM_TIMING=0 -DVM_TRACE=0 -DVM_TRACE_FST=0 -DVM_TRACE_VCD=0 -DVM_TRACE_SAIF=0 -faligned-new -fcf-protection=none -Wno-bool-operation -Wno-int-in-bool-context -Wno-shadow -Wno-sign-compare -Wno-subobject-linkage -Wno-tautological-compare -Wno-uninitialized -Wno-unused-but-set-parameter -Wno-unused-but-set-variable -Wno-unused-parameter -Wno-unused-variable      -c -o verilated_cov.o /home/abdulbasit/open-source/verilator/include/verilated_cov.cpp
ccache g++ -Os  -I.  -MMD -I/home/abdulbasit/open-source/verilator/include -I/home/abdulbasit/open-source/verilator/include/vltstd -DVERILATOR=1 -DVM_COVERAGE=1 -DVM_SC=0 -DVM_TIMING=0 -DVM_TRACE=0 -DVM_TRACE_FST=0 -DVM_TRACE_VCD=0 -DVM_TRACE_SAIF=0 -faligned-new -fcf-protection=none -Wno-bool-operation -Wno-int-in-bool-context -Wno-shadow -Wno-sign-compare -Wno-subobject-linkage -Wno-tautological-compare -Wno-uninitialized -Wno-unused-but-set-parameter -Wno-unused-but-set-variable -Wno-unused-parameter -Wno-unused-variable      -c -o verilated_threads.o /home/abdulbasit/open-source/verilator/include/verilated_threads.cpp
python3 /home/abdulbasit/open-source/verilator/bin/verilator_includer -DVL_INCLUDE_OPT=include Vtop.cpp Vtop___024root__0.cpp Vtop__Dpi.cpp Vtop___024root__Slow.cpp Vtop___024root__0__Slow.cpp Vtop_dv_common_pkg__Slow.cpp Vtop_dv_common_pkg__0__Slow.cpp Vtop__Syms__Slow.cpp > Vtop__ALL.cpp
ccache g++ -Os  -I.  -MMD -I/home/abdulbasit/open-source/verilator/include -I/home/abdulbasit/open-source/verilator/include/vltstd -DVERILATOR=1 -DVM_COVERAGE=1 -DVM_SC=0 -DVM_TIMING=0 -DVM_TRACE=0 -DVM_TRACE_FST=0 -DVM_TRACE_VCD=0 -DVM_TRACE_SAIF=0 -faligned-new -fcf-protection=none -Wno-bool-operation -Wno-int-in-bool-context -Wno-shadow -Wno-sign-compare -Wno-subobject-linkage -Wno-tautological-compare -Wno-uninitialized -Wno-unused-but-set-parameter -Wno-unused-but-set-variable -Wno-unused-parameter -Wno-unused-variable      -c -o Vtop__ALL.o Vtop__ALL.cpp
g++    verilator.o verilated.o verilated_dpi.o verilated_vpi.o verilated_cov.o verilated_threads.o Vtop__ALL.a   -Wl,-rpath,/home/abdulbasit/electrical-and-electronics-engineering/VLSI/isqed-2026-dv-challenge/.venv/lib/python3.12/site-packages/cocotb/libs -L/home/abdulbasit/electrical-and-electronics-engineering/VLSI/isqed-2026-dv-challenge/.venv/lib/python3.12/site-packages/cocotb/libs -lcocotbvpi_verilator  -pthread -lpthread -latomic   -o bastion_gpio
rm Vtop__ALL.verilator_deplist.tmp
make: Leaving directory '/home/abdulbasit/electrical-and-electronics-engineering/VLSI/isqed-2026-dv-challenge/submissions/task-4.1/submission-4.1/output_bastion_gpio/sim_build/verilator'
     -.--ns INFO     gpi                                ..mbed/gpi_embed.cpp:93   in _embed_init_python              Using Python 3.12.4 interpreter at /home/abdulbasit/electrical-and-electronics-engineering/VLSI/isqed-2026-dv-challenge/.venv/bin/python
     -.--ns INFO     gpi                                ../gpi/GpiCommon.cpp:79   in gpi_print_registered_impl       VPI registered
     0.00ns INFO     cocotb                             Running on Verilator version 5.045 devel
     0.00ns INFO     cocotb                             Seeding Python random module with 1775491589
     0.00ns INFO     cocotb                             Initialized cocotb v2.0.1 from /home/abdulbasit/electrical-and-electronics-engineering/VLSI/isqed-2026-dv-challenge/.venv/lib/python3.12/site-packages/cocotb
     0.00ns INFO     cocotb                             Running tests
     0.00ns INFO     cocotb.regression                  running test_directed_smoke.test_directed_csr_smoke (1/2)
                                                            Directed smoke test: reset, deterministic writes, deterministic reads.
     0.08ns INFO     cocotb.regression                  test_directed_smoke.test_directed_csr_smoke passed
     0.08ns INFO     cocotb.regression                  running test_directed_smoke.test_directed_error_probe (2/2)
                                                            Directed boundary/error probe on out-of-range-like addresses.
     0.11ns INFO     cocotb.regression                  test_directed_smoke.test_directed_error_probe passed
     0.11ns INFO     cocotb.regression                  *******************************************************************************************************
                                                        ** TEST                                           STATUS  SIM TIME (ns)  REAL TIME (s)  RATIO (ns/s) **
                                                        *******************************************************************************************************
                                                        ** test_directed_smoke.test_directed_csr_smoke     PASS           0.08           0.00         17.56  **
                                                        ** test_directed_smoke.test_directed_error_probe   PASS           0.03           0.00         16.22  **
                                                        *******************************************************************************************************
                                                        ** TESTS=2 PASS=2 FAIL=0 SKIP=0                                   0.11           0.01         12.54  **
                                                        *******************************************************************************************************
- :0: Verilog $finish
     -.--ns INFO     gpi                                ..mbed/gpi_embed.cpp:93   in _embed_init_python              Using Python 3.12.4 interpreter at /home/abdulbasit/electrical-and-electronics-engineering/VLSI/isqed-2026-dv-challenge/.venv/bin/python
     -.--ns INFO     gpi                                ../gpi/GpiCommon.cpp:79   in gpi_print_registered_impl       VPI registered
     0.00ns INFO     cocotb                             Running on Verilator version 5.045 devel
     0.00ns INFO     cocotb                             Seeding Python random module with 1775491589
     0.00ns INFO     cocotb                             Initialized cocotb v2.0.1 from /home/abdulbasit/electrical-and-electronics-engineering/VLSI/isqed-2026-dv-challenge/.venv/lib/python3.12/site-packages/cocotb
     0.00ns INFO     cocotb                             Running tests
     0.00ns INFO     cocotb.regression                  running test_gap_iter_1.test_gap_iteration_1 (1/1)
                                                            Coverage-gap iteration test: sync_latency_observability_gap.
     0.09ns INFO     cocotb.regression                  test_gap_iter_1.test_gap_iteration_1 passed
     0.09ns INFO     cocotb.regression                  **********************************************************************************************
                                                        ** TEST                                  STATUS  SIM TIME (ns)  REAL TIME (s)  RATIO (ns/s) **
                                                        **********************************************************************************************
                                                        ** test_gap_iter_1.test_gap_iteration_1   PASS           0.09           0.01         17.30  **
                                                        **********************************************************************************************
                                                        ** TESTS=1 PASS=1 FAIL=0 SKIP=0                          0.09           0.01         12.99  **
                                                        **********************************************************************************************
- :0: Verilog $finish
     -.--ns INFO     gpi                                ..mbed/gpi_embed.cpp:93   in _embed_init_python              Using Python 3.12.4 interpreter at /home/abdulbasit/electrical-and-electronics-engineering/VLSI/isqed-2026-dv-challenge/.venv/bin/python
     -.--ns INFO     gpi                                ../gpi/GpiCommon.cpp:79   in gpi_print_registered_impl       VPI registered
     0.00ns INFO     cocotb                             Running on Verilator version 5.045 devel
     0.00ns INFO     cocotb                             Seeding Python random module with 1775491590
     0.00ns INFO     cocotb                             Initialized cocotb v2.0.1 from /home/abdulbasit/electrical-and-electronics-engineering/VLSI/isqed-2026-dv-challenge/.venv/lib/python3.12/site-packages/cocotb
     0.00ns INFO     cocotb                             Running tests
     0.00ns INFO     cocotb.regression                  running test_random_csr.test_randomized_csr_traffic (1/1)
                                                            Constrained-random TL-UL CSR traffic with reproducible seed.
     0.11ns INFO     cocotb.regression                  test_random_csr.test_randomized_csr_traffic passed
     0.11ns INFO     cocotb.regression                  *****************************************************************************************************
                                                        ** TEST                                         STATUS  SIM TIME (ns)  REAL TIME (s)  RATIO (ns/s) **
                                                        *****************************************************************************************************
                                                        ** test_random_csr.test_randomized_csr_traffic   PASS           0.11           0.01         19.54  **
                                                        *****************************************************************************************************
                                                        ** TESTS=1 PASS=1 FAIL=0 SKIP=0                                 0.11           0.01         15.65  **
                                                        *****************************************************************************************************
- :0: Verilog $finish
/home/abdulbasit/electrical-and-electronics-engineering/VLSI/isqed-2026-dv-challenge/duts/bastion_gpio/bastion_gpio.sv:119: sorry: constant selects in always_* processes are not currently supported (all bits will be included).
